sim/waveform.vcd
$date
	Mon Jun 29 11:48:33 2026
$end
$version
	Icarus Verilog
$end
$timescale
	1ns
$end
$scope module axi_tb $end
$var wire 1 ! arready $end
$var wire 2 " bresp [1:0] $end
$var wire 2 # rresp [1:0] $end
$var wire 1 $ wready $end
$var wire 1 % rvalid $end
$var wire 32 & rdata [31:0] $end
$var wire 1 ' bvalid $end
$var wire 1 ( awready $end
$var parameter 32 ) ADDR_WIDTH $end
$var parameter 32 * AW $end
$var parameter 32 + BW $end
$var parameter 32 , DW $end
$var parameter 32 - FLUSH_CYCLES $end
$var parameter 32 . N $end
$var parameter 32 / N_BITS $end
$var parameter 32 0 N_BUTTERFLIES $end
$var parameter 32 1 N_LEVELS $end
$var parameter 33 2 TWIDDLE_WIDTH $end
$var reg 32 3 araddr [31:0] $end
$var reg 1 4 arvalid $end
$var reg 32 5 awaddr [31:0] $end
$var reg 1 6 awvalid $end
$var reg 1 7 bready $end
$var reg 1 8 clk $end
$var reg 1 9 rready $end
$var reg 1 : rst $end
$var reg 32 ; wdata [31:0] $end
$var reg 1 < wvalid $end
$scope function bit_rev $end
$var reg 7 = in [6:0] $end
$var integer 32 > i [31:0] $end
$upscope $end
$scope module DUT $end
$var wire 1 8 clk $end
$var wire 1 : rst $end
$var wire 32 ? s_axi_araddr [31:0] $end
$var wire 1 ! s_axi_arready $end
$var wire 1 4 s_axi_arvalid $end
$var wire 32 @ s_axi_awaddr [31:0] $end
$var wire 1 ( s_axi_awready $end
$var wire 1 6 s_axi_awvalid $end
$var wire 1 7 s_axi_bready $end
$var wire 2 A s_axi_bresp [1:0] $end
$var wire 1 9 s_axi_rready $end
$var wire 2 B s_axi_rresp [1:0] $end
$var wire 32 C s_axi_wdata [31:0] $end
$var wire 1 $ s_axi_wready $end
$var wire 1 < s_axi_wvalid $end
$var wire 1 D valid_read_request $end
$var wire 1 E valid_write_request $end
$var wire 1 F sent $end
$var wire 19 G read_data_r [18:0] $end
$var wire 19 H read_data_i [18:0] $end
$var wire 1 I fft_done $end
$var wire 1 J fft_busy $end
$var parameter 32 K ADDR_WIDTH $end
$var parameter 32 L AW $end
$var parameter 32 M BW $end
$var parameter 32 N DW $end
$var parameter 32 O FLUSH_CYCLES $end
$var parameter 32 P N $end
$var parameter 32 Q N_BITS $end
$var parameter 32 R N_BUTTERFLIES $end
$var parameter 32 S N_LEVELS $end
$var parameter 33 T TWIDDLE_WIDTH $end
$var reg 1 U fft_start $end
$var reg 7 V load_addr [6:0] $end
$var reg 19 W load_data_i [18:0] $end
$var reg 19 X load_data_r [18:0] $end
$var reg 1 Y load_en $end
$var reg 7 Z read_addr [6:0] $end
$var reg 1 ' s_axi_bvalid $end
$var reg 32 [ s_axi_rdata [31:0] $end
$var reg 1 % s_axi_rvalid $end
$var reg 1 \ sel $end
$scope module FFT_MODULE $end
$var wire 1 8 clk $end
$var wire 1 I fft_done $end
$var wire 1 U fft_start $end
$var wire 7 ] load_addr [6:0] $end
$var wire 19 ^ load_data_i [18:0] $end
$var wire 19 _ load_data_r [18:0] $end
$var wire 1 Y load_en $end
$var wire 7 ` read_addr [6:0] $end
$var wire 1 : rst $end
$var wire 6 a twiddle_addr [5:0] $end
$var wire 1 F sent $end
$var wire 19 b read_data_r [18:0] $end
$var wire 19 c read_data_i [18:0] $end
$var wire 7 d mem_addr_B [6:0] $end
$var wire 7 e mem_addr_A [6:0] $end
$var wire 1 f fft_done_agu $end
$var wire 1 J fft_busy $end
$var wire 1 g bank_sel $end
$var wire 1 h agu_send $end
$var parameter 32 i ADDR_WIDTH $end
$var parameter 32 j FLUSH_CYCLES $end
$var parameter 32 k N $end
$var parameter 32 l N_BITS $end
$var parameter 32 m N_BUTTERFLIES $end
$var parameter 32 n N_LEVELS $end
$var parameter 33 o TWIDDLE_WIDTH $end
$scope module AGU $end
$var wire 1 8 clk $end
$var wire 1 U fft_start $end
$var wire 1 : rst $end
$var wire 7 p up_ind [6:0] $end
$var wire 7 q low_ind [6:0] $end
$var wire 7 r bf_cnt_2 [6:0] $end
$var parameter 32 s ADDR_WIDTH $end
$var parameter 32 t BANK_A_SEL $end
$var parameter 32 u BANK_B_SEL $end
$var parameter 32 v FLUSH $end
$var parameter 32 w FLUSH_CYCLES $end
$var parameter 32 x IDLE $end
$var parameter 32 y N $end
$var parameter 32 z N_BITS $end
$var parameter 32 { N_BUTTERFLIES $end
$var parameter 32 | N_LEVELS $end
$var parameter 32 } SEND $end
$var parameter 33 ~ TWIDDLE_WIDTH $end
$var reg 1 h agu_send $end
$var reg 1 g bank_sel $end
$var reg 6 !" bf_cnt [5:0] $end
$var reg 1 J fft_busy $end
$var reg 1 f fft_done $end
$var reg 3 "" flush_cnt [2:0] $end
$var reg 1 #" flush_last $end
$var reg 6 $" lvl_cnt [5:0] $end
$var reg 7 %" mem_addr_A [6:0] $end
$var reg 7 &" mem_addr_B [6:0] $end
$var reg 1 F sent $end
$var reg 2 '" state [1:0] $end
$var reg 6 (" twiddle_addr [5:0] $end
$var reg 6 )" twiddle_grp [5:0] $end
$scope function rotateN $end
$var reg 7 *" in [6:0] $end
$var reg 7 +" shift [6:0] $end
$upscope $end
$upscope $end
$scope module MEMU $end
$var wire 1 h agu_send $end
$var wire 19 ," bankA_wdata_p1 [18:0] $end
$var wire 19 -" bankA_wdata_p1_i [18:0] $end
$var wire 19 ." bankB_wdata_p0 [18:0] $end
$var wire 19 /" bankB_wdata_p0_i [18:0] $end
$var wire 19 0" bankB_wdata_p1 [18:0] $end
$var wire 19 1" bankB_wdata_p1_i [18:0] $end
$var wire 1 g bank_sel $end
$var wire 1 8 clk $end
$var wire 1 f fft_done $end
$var wire 1 U fft_start $end
$var wire 7 2" load_addr [6:0] $end
$var wire 19 3" load_data_i [18:0] $end
$var wire 19 4" load_data_r [18:0] $end
$var wire 1 Y load_en $end
$var wire 7 5" mem_addr_A [6:0] $end
$var wire 7 6" mem_addr_B [6:0] $end
$var wire 7 7" read_addr [6:0] $end
$var wire 1 : rst $end
$var wire 6 8" twiddle_addr [5:0] $end
$var wire 1 9" bankB_we_p1 $end
$var wire 1 :" bankB_we_p0 $end
$var wire 19 ;" bankB_rdata_p1_i [18:0] $end
$var wire 19 <" bankB_rdata_p1 [18:0] $end
$var wire 19 =" bankB_rdata_p0_i [18:0] $end
$var wire 19 >" bankB_rdata_p0 [18:0] $end
$var wire 7 ?" bankB_addr_p1 [6:0] $end
$var wire 7 @" bankB_addr_p0 [6:0] $end
$var wire 1 A" bankA_we_p1 $end
$var wire 1 B" bankA_we_p0 $end
$var wire 19 C" bankA_wdata_p0_i [18:0] $end
$var wire 19 D" bankA_wdata_p0 [18:0] $end
$var wire 19 E" bankA_rdata_p1_i [18:0] $end
$var wire 19 F" bankA_rdata_p1 [18:0] $end
$var wire 19 G" bankA_rdata_p0_i [18:0] $end
$var wire 19 H" bankA_rdata_p0 [18:0] $end
$var wire 7 I" bankA_addr_p1 [6:0] $end
$var wire 7 J" bankA_addr_p0 [6:0] $end
$var wire 19 K" N_r_trunc [18:0] $end
$var wire 39 L" N_r [38:0] $end
$var wire 19 M" N_i_trunc [18:0] $end
$var wire 39 N" N_i [38:0] $end
$var wire 19 O" M_r_trunc [18:0] $end
$var wire 39 P" M_r [38:0] $end
$var wire 19 Q" M_i_trunc [18:0] $end
$var wire 39 R" M_i [38:0] $end
$var parameter 32 S" ADDR_WIDTH $end
$var parameter 32 T" BANK_A_SEL $end
$var parameter 32 U" BANK_B_SEL $end
$var parameter 32 V" DISP $end
$var parameter 32 W" FLUSH_CYCLES $end
$var parameter 32 X" IDLE $end
$var parameter 32 Y" N $end
$var parameter 32 Z" N_BITS $end
$var parameter 32 [" N_BUTTERFLIES $end
$var parameter 32 \" N_LEVELS $end
$var parameter 33 ]" TWIDDLE_WIDTH $end
$var reg 19 ^" A_i [18:0] $end
$var reg 19 _" A_i_1 [18:0] $end
$var reg 38 `" A_i_2 [37:0] $end
$var reg 19 a" A_r [18:0] $end
$var reg 19 b" A_r_1 [18:0] $end
$var reg 38 c" A_r_2 [37:0] $end
$var reg 19 d" B_i [18:0] $end
$var reg 19 e" B_r [18:0] $end
$var reg 19 f" W_i [18:0] $end
$var reg 19 g" W_r [18:0] $end
$var reg 7 h" mem_addr_A1 [6:0] $end
$var reg 7 i" mem_addr_A2 [6:0] $end
$var reg 7 j" mem_addr_A3 [6:0] $end
$var reg 7 k" mem_addr_A4 [6:0] $end
$var reg 7 l" mem_addr_B1 [6:0] $end
$var reg 7 m" mem_addr_B2 [6:0] $end
$var reg 7 n" mem_addr_B3 [6:0] $end
$var reg 7 o" mem_addr_B4 [6:0] $end
$var reg 39 p" out_A_i [38:0] $end
$var reg 39 q" out_A_r [38:0] $end
$var reg 39 r" out_B_i [38:0] $end
$var reg 39 s" out_B_r [38:0] $end
$var reg 38 t" p1 [37:0] $end
$var reg 38 u" p2 [37:0] $end
$var reg 38 v" p3 [37:0] $end
$var reg 38 w" p4 [37:0] $end
$var reg 19 x" read_data_i [18:0] $end
$var reg 19 y" read_data_r [18:0] $end
$var reg 1 z" send1 $end
$var reg 1 {" send2 $end
$var reg 1 |" send3 $end
$var reg 1 }" send4 $end
$var reg 38 ~" temp_i [37:0] $end
$var reg 38 !# temp_r [37:0] $end
$scope module BANK_A_IMAG $end
$var wire 7 "# addr_p0 [6:0] $end
$var wire 7 ## addr_p1 [6:0] $end
$var wire 1 8 clk $end
$var wire 19 $# wdata_p0 [18:0] $end
$var wire 19 %# wdata_p1 [18:0] $end
$var wire 1 B" we_p0 $end
$var wire 1 A" we_p1 $end
$var parameter 32 &# ADDR_WIDTH $end
$var parameter 32 '# DEPTH $end
$var parameter 152 (# INIT_FILE $end
$var parameter 32 )# WIDTH $end
$var reg 19 *# rdata_p0 [18:0] $end
$var reg 19 +# rdata_p1 [18:0] $end
$upscope $end
$scope module BANK_A_REAL $end
$var wire 7 ,# addr_p0 [6:0] $end
$var wire 7 -# addr_p1 [6:0] $end
$var wire 1 8 clk $end
$var wire 19 .# wdata_p0 [18:0] $end
$var wire 19 /# wdata_p1 [18:0] $end
$var wire 1 B" we_p0 $end
$var wire 1 A" we_p1 $end
$var parameter 32 0# ADDR_WIDTH $end
$var parameter 32 1# DEPTH $end
$var parameter 152 2# INIT_FILE $end
$var parameter 32 3# WIDTH $end
$var reg 19 4# rdata_p0 [18:0] $end
$var reg 19 5# rdata_p1 [18:0] $end
$upscope $end
$scope module BANK_B_IMAG $end
$var wire 7 6# addr_p0 [6:0] $end
$var wire 7 7# addr_p1 [6:0] $end
$var wire 1 8 clk $end
$var wire 19 8# wdata_p0 [18:0] $end
$var wire 19 9# wdata_p1 [18:0] $end
$var wire 1 :" we_p0 $end
$var wire 1 9" we_p1 $end
$var parameter 32 :# ADDR_WIDTH $end
$var parameter 32 ;# DEPTH $end
$var parameter 0 <# INIT_FILE $end
$var parameter 32 =# WIDTH $end
$var reg 19 ># rdata_p0 [18:0] $end
$var reg 19 ?# rdata_p1 [18:0] $end
$upscope $end
$scope module BANK_B_REAL $end
$var wire 7 @# addr_p0 [6:0] $end
$var wire 7 A# addr_p1 [6:0] $end
$var wire 1 8 clk $end
$var wire 19 B# wdata_p0 [18:0] $end
$var wire 19 C# wdata_p1 [18:0] $end
$var wire 1 :" we_p0 $end
$var wire 1 9" we_p1 $end
$var parameter 32 D# ADDR_WIDTH $end
$var parameter 32 E# DEPTH $end
$var parameter 0 F# INIT_FILE $end
$var parameter 32 G# WIDTH $end
$var reg 19 H# rdata_p0 [18:0] $end
$var reg 19 I# rdata_p1 [18:0] $end
$upscope $end
$scope task display_fft_output $end
$var integer 32 J# i [31:0] $end
$var real 1 K# imag_val $end
$var real 1 L# real_val $end
$var real 1 M# scale $end
$upscope $end
$scope task display_mem $end
$var integer 32 N# i [31:0] $end
$upscope $end
$upscope $end
$upscope $end
$upscope $end
$scope task load_data $end
$var reg 7 O# idx [6:0] $end
$var integer 32 P# i [31:0] $end
$upscope $end
$upscope $end
$enddefinitions $end
$comment Show the parameter values. $end
$dumpall
b10011 G#
b F#
b10000000 E#
b111 D#
b10011 =#
b <#
b10000000 ;#
b111 :#
b10011 3#
b101110001011100010111101110010011101000110110000101111011100100110010101100001011011000101111101101101011001010110110100101110011010000110010101111000 2#
b10000000 1#
b111 0#
b10011 )#
b101110001011100010111101110010011101000110110000101111011010010110110101100001011001110101111101101101011001010110110100101110011010000110010101111000 (#
b10000000 '#
b111 &#
b110 ]"
b111 \"
b1000000 ["
b111 Z"
b10000000 Y"
b0 X"
b101 W"
b1 V"
b1 U"
b0 T"
b111 S"
b110 ~
b1 }
b111 |
b1000000 {
b111 z
b10000000 y
b0 x
b101 w
b10 v
b1 u
b0 t
b111 s
b110 o
b111 n
b1000000 m
b111 l
b10000000 k
b101 j
b111 i
b110 T
b111 S
b1000000 R
b111 Q
b10000000 P
b101 O
b100000 N
b10 M
b100000 L
b111 K
b110 2
b111 1
b1000000 0
b111 /
b10000000 .
b101 -
b100000 ,
b10 +
b100000 *
b111 )
$end
#0
$dumpvars
bx P#
bx O#
bx N#
r0 M#
r0 L#
r0 K#
bx J#
bx I#
bx H#
bx C#
bx B#
bx A#
bx @#
bx ?#
bx >#
bx 9#
bx 8#
bx 7#
bx 6#
bx 5#
bx 4#
bx /#
bx .#
bx -#
bx ,#
bx +#
bx *#
bx %#
bx $#
bx ##
bx "#
bx !#
bx ~"
x}"
x|"
x{"
xz"
bx y"
bx x"
bx w"
bx v"
bx u"
bx t"
bx s"
bx r"
bx q"
bx p"
bx o"
bx n"
bx m"
bx l"
bx k"
bx j"
bx i"
bx h"
bx g"
bx f"
bx e"
bx d"
bx c"
bx b"
bx a"
bx `"
bx _"
bx ^"
bx R"
bx Q"
bx P"
bx O"
bx N"
bx M"
bx L"
bx K"
bx J"
bx I"
bx H"
bx G"
bx F"
bx E"
bx D"
bx C"
xB"
xA"
bx @"
bx ?"
bx >"
bx ="
bx <"
bx ;"
x:"
x9"
bx 8"
bx 7"
bx 6"
bx 5"
bx 4"
bx 3"
bx 2"
bx 1"
bx 0"
bx /"
bx ."
bx -"
bx ,"
bx +"
bx *"
bx )"
bx ("
bx '"
bx &"
bx %"
bx $"
x#"
bx ""
bx !"
bx0 r
bx q
bx0 p
xh
xg
xf
bx e
bx d
bx c
bx b
bx a
bx `
bx _
bx ^
bx ]
x\
bx [
bx Z
xY
bx X
bx W
bx V
xU
xJ
xI
bx H
bx G
xF
0E
0D
b0 C
b0 B
b0 A
b0 @
b0 ?
bx >
bx =
0<
b0 ;
0:
19
08
17
06
b0 5
04
b0 3
x(
x'
bx &
x%
x$
b0 #
b0 "
1!
$end
#3
1:
#5
0B"
b0 J"
b0 "#
b0 ,#
b0 C"
b0 $#
b0 D"
b0 .#
1$
1(
0A"
0:"
09"
b0 I"
b0 ##
b0 -#
b0 ?"
b0 7#
b0 A#
b0 @"
b0 6#
b0 @#
b0 1"
b0 9#
b0 -"
b0 %#
b0 M"
b0 0"
b0 C#
b0 ,"
b0 /#
b0 K"
b0 /"
b0 8#
b0 Q"
b0 ."
b0 B#
b0 O"
0g
0J
0h
0#"
0I
0f
b0 ""
b0 a
b0 ("
b0 8"
b0 d
b0 &"
b0 6"
b0 e
b0 %"
b0 5"
b0 '"
b1 q
b0 p
b0 r
b0 !"
b0 $"
0F
b0 G
b0 b
b0 y"
b0 H
b0 c
b0 x"
0z"
b0 l"
b0 h"
b0 f"
b0 g"
0{"
b0 m"
b0 i"
b0 _"
b0 b"
b0 w"
b0 v"
b0 u"
b0 t"
0|"
b0 n"
b0 j"
b0 `"
b0 c"
b0 ~"
b0 !#
0}"
b0 o"
b0 k"
b0 N"
b0 r"
b0 L"
b0 s"
b0 R"
b0 p"
b0 P"
b0 q"
0%
0'
0U
0Y
b0 X
b0 _
b0 4"
b0 W
b0 ^
b0 3"
b0 V
b0 ]
b0 2"
0\
b0 Z
b0 `
b0 7"
18
#8
0:
#10
08
#15
bx _"
bx b"
bx w"
bx v"
bx u"
bx t"
b111111111111111111 g"
1E
b0 O#
b0 P#
b1 ;
b1 C
b100 5
b100 @
1<
16
18
#20
08
#25
1B"
bx000000000000000000 `"
bx000000000000000000 c"
bx ~"
bx !#
1'
1Y
18
#26
b0 ;
b0 C
b111 >
b0 =
b1000 5
b1000 @
#30
08
#35
bx 1"
bx 9#
bx -"
bx %#
bx M"
bx 0"
bx C#
bx ,"
bx /#
bx K"
bx /"
bx 8#
bx Q"
bx ."
bx B#
bx O"
0'
bx N"
bx r"
bx L"
bx s"
bx R"
bx p"
bx P"
bx q"
18
#36
b100000000000 ;
b100000000000 C
b1100 5
b1100 @
#40
08
#45
b0 d"
b0 e"
b100000000000 D"
b100000000000 .#
b0 F"
b0 5#
b0 E"
b0 +#
1'
b100000000000 X
b100000000000 _
b100000000000 4"
18
#46
b1 O#
b1 P#
b0 ;
b0 C
b10000 5
b10000 @
#50
08
#55
0'
b0 w"
b0 v"
b0 u"
b0 t"
18
#56
b1000000 ;
b1000000 C
b111 >
b1 =
b1000 5
b1000 @
#60
08
#65
b100000000000 e"
b1000000 J"
b1000000 "#
b1000000 ,#
b100000000000 F"
b100000000000 5#
b0 ~"
b0 !#
1'
b1000000 V
b1000000 ]
b1000000 2"
18
#66
b100000000000 ;
b100000000000 C
b1100 5
b1100 @
#70
08
#75
0'
b11111111111111111100000000000 t"
18
#76
b10 O#
b10 P#
b0 ;
b0 C
b10000 5
b10000 @
#80
08
#85
b11111111111111111100000000000 !#
1'
18
#86
b100000 ;
b100000 C
b111 >
b10 =
b1000 5
b1000 @
#90
08
#95
b100000 J"
b100000 "#
b100000 ,#
b100000 V
b100000 ]
b100000 2"
0'
18
#96
b100000000000 ;
b100000000000 C
b1100 5
b1100 @
#100
08
#105
1'
18
#106
b11 O#
b11 P#
b0 ;
b0 C
b10000 5
b10000 @
#110
08
#115
0'
18
#116
b1100000 ;
b1100000 C
b111 >
b11 =
b1000 5
b1000 @
#120
08
#125
b1100000 J"
b1100000 "#
b1100000 ,#
1'
b1100000 V
b1100000 ]
b1100000 2"
18
#126
b100000000000 ;
b100000000000 C
b1100 5
b1100 @
#130
08
#135
0'
18
#136
b100 O#
b100 P#
b0 ;
b0 C
b10000 5
b10000 @
#140
08
#145
1'
18
#146
b10000 ;
b10000 C
b111 >
b100 =
b1000 5
b1000 @
#150
08
#155
b10000 J"
b10000 "#
b10000 ,#
b10000 V
b10000 ]
b10000 2"
0'
18
#156
b100000000000 ;
b100000000000 C
b1100 5
b1100 @
#160
08
#165
1'
18
#166
b101 O#
b101 P#
b0 ;
b0 C
b10000 5
b10000 @
#170
08
#175
0'
18
#176
b1010000 ;
b1010000 C
b111 >
b101 =
b1000 5
b1000 @
#180
08
#185
b1010000 J"
b1010000 "#
b1010000 ,#
1'
b1010000 V
b1010000 ]
b1010000 2"
18
#186
b100000000000 ;
b100000000000 C
b1100 5
b1100 @
#190
08
#195
0'
18
#196
b110 O#
b110 P#
b0 ;
b0 C
b10000 5
b10000 @
#200
08
#205
1'
18
#206
b110000 ;
b110000 C
b111 >
b110 =
b1000 5
b1000 @
#210
08
#215
b110000 J"
b110000 "#
b110000 ,#
b110000 V
b110000 ]
b110000 2"
0'
18
#216
b100000000000 ;
b100000000000 C
b1100 5
b1100 @
#220
08
#225
1'
18
#226
b111 O#
b111 P#
b0 ;
b0 C
b10000 5
b10000 @
#230
08
#235
0'
18
#236
b1110000 ;
b1110000 C
b111 >
b111 =
b1000 5
b1000 @
#240
08
#245
b1110000 J"
b1110000 "#
b1110000 ,#
1'
b1110000 V
b1110000 ]
b1110000 2"
18
#246
b100000000000 ;
b100000000000 C
b1100 5
b1100 @
#250
08
#255
0'
18
#256
b1000 O#
b1000 P#
b0 ;
b0 C
b10000 5
b10000 @
#260
08
#265
1'
18
#266
b1000 ;
b1000 C
b111 >
b1000 =
b1000 5
b1000 @
#270
08
#275
b1000 J"
b1000 "#
b1000 ,#
b1000 V
b1000 ]
b1000 2"
0'
18
#276
b100000000000 ;
b100000000000 C
b1100 5
b1100 @
#280
08
#285
1'
18
#286
b1001 O#
b1001 P#
b0 ;
b0 C
b10000 5
b10000 @
#290
08
#295
0'
18
#296
b1001000 ;
b1001000 C
b111 >
b1001 =
b1000 5
b1000 @
#300
08
#305
b1001000 J"
b1001000 "#
b1001000 ,#
1'
b1001000 V
b1001000 ]
b1001000 2"
18
#306
b100000000000 ;
b100000000000 C
b1100 5
b1100 @
#310
08
#315
0'
18
#316
b1010 O#
b1010 P#
b0 ;
b0 C
b10000 5
b10000 @
#320
08
#325
1'
18
#326
b101000 ;
b101000 C
b111 >
b1010 =
b1000 5
b1000 @
#330
08
#335
b101000 J"
b101000 "#
b101000 ,#
b101000 V
b101000 ]
b101000 2"
0'
18
#336
b100000000000 ;
b100000000000 C
b1100 5
b1100 @
#340
08
#345
1'
18
#346
b1011 O#
b1011 P#
b0 ;
b0 C
b10000 5
b10000 @
#350
08
#355
0'
18
#356
b1101000 ;
b1101000 C
b111 >
b1011 =
b1000 5
b1000 @
#360
08
#365
b1101000 J"
b1101000 "#
b1101000 ,#
1'
b1101000 V
b1101000 ]
b1101000 2"
18
#366
b100000000000 ;
b100000000000 C
b1100 5
b1100 @
#370
08
#375
0'
18
#376
b1100 O#
b1100 P#
b0 ;
b0 C
b10000 5
b10000 @
#380
08
#385
1'
18
#386
b11000 ;
b11000 C
b111 >
b1100 =
b1000 5
b1000 @
#390
08
#395
b11000 J"
b11000 "#
b11000 ,#
b11000 V
b11000 ]
b11000 2"
0'
18
#396
b100000000000 ;
b100000000000 C
b1100 5
b1100 @
#400
08
#405
1'
18
#406
b1101 O#
b1101 P#
b0 ;
b0 C
b10000 5
b10000 @
#410
08
#415
0'
18
#416
b1011000 ;
b1011000 C
b111 >
b1101 =
b1000 5
b1000 @
#420
08
#425
b1011000 J"
b1011000 "#
b1011000 ,#
1'
b1011000 V
b1011000 ]
b1011000 2"
18
#426
b100000000000 ;
b100000000000 C
b1100 5
b1100 @
#430
08
#435
0'
18
#436
b1110 O#
b1110 P#
b0 ;
b0 C
b10000 5
b10000 @
#440
08
#445
1'
18
#446
b111000 ;
b111000 C
b111 >
b1110 =
b1000 5
b1000 @
#450
08
#455
b111000 J"
b111000 "#
b111000 ,#
b111000 V
b111000 ]
b111000 2"
0'
18
#456
b100000000000 ;
b100000000000 C
b1100 5
b1100 @
#460
08
#465
1'
18
#466
b1111 O#
b1111 P#
b0 ;
b0 C
b10000 5
b10000 @
#470
08
#475
0'
18
#476
b1111000 ;
b1111000 C
b111 >
b1111 =
b1000 5
b1000 @
#480
08
#485
b1111000 J"
b1111000 "#
b1111000 ,#
1'
b1111000 V
b1111000 ]
b1111000 2"
18
#486
b100000000000 ;
b100000000000 C
b1100 5
b1100 @
#490
08
#495
0'
18
#496
b10000 O#
b10000 P#
b0 ;
b0 C
b10000 5
b10000 @
#500
08
#505
1'
18
#506
b100 ;
b100 C
b111 >
b10000 =
b1000 5
b1000 @
#510
08
#515
b100 J"
b100 "#
b100 ,#
b100 V
b100 ]
b100 2"
0'
18
#516
b100000000000 ;
b100000000000 C
b1100 5
b1100 @
#520
08
#525
1'
18
#526
b10001 O#
b10001 P#
b0 ;
b0 C
b10000 5
b10000 @
#530
08
#535
0'
18
#536
b1000100 ;
b1000100 C
b111 >
b10001 =
b1000 5
b1000 @
#540
08
#545
b1000100 J"
b1000100 "#
b1000100 ,#
1'
b1000100 V
b1000100 ]
b1000100 2"
18
#546
b100000000000 ;
b100000000000 C
b1100 5
b1100 @
#550
08
#555
0'
18
#556
b10010 O#
b10010 P#
b0 ;
b0 C
b10000 5
b10000 @
#560
08
#565
1'
18
#566
b100100 ;
b100100 C
b111 >
b10010 =
b1000 5
b1000 @
#570
08
#575
b100100 J"
b100100 "#
b100100 ,#
b100100 V
b100100 ]
b100100 2"
0'
18
#576
b100000000000 ;
b100000000000 C
b1100 5
b1100 @
#580
08
#585
1'
18
#586
b10011 O#
b10011 P#
b0 ;
b0 C
b10000 5
b10000 @
#590
08
#595
0'
18
#596
b1100100 ;
b1100100 C
b111 >
b10011 =
b1000 5
b1000 @
#600
08
#605
b1100100 J"
b1100100 "#
b1100100 ,#
1'
b1100100 V
b1100100 ]
b1100100 2"
18
#606
b100000000000 ;
b100000000000 C
b1100 5
b1100 @
#610
08
#615
0'
18
#616
b10100 O#
b10100 P#
b0 ;
b0 C
b10000 5
b10000 @
#620
08
#625
1'
18
#626
b10100 ;
b10100 C
b111 >
b10100 =
b1000 5
b1000 @
#630
08
#635
b10100 J"
b10100 "#
b10100 ,#
b10100 V
b10100 ]
b10100 2"
0'
18
#636
b100000000000 ;
b100000000000 C
b1100 5
b1100 @
#640
08
#645
1'
18
#646
b10101 O#
b10101 P#
b0 ;
b0 C
b10000 5
b10000 @
#650
08
#655
0'
18
#656
b1010100 ;
b1010100 C
b111 >
b10101 =
b1000 5
b1000 @
#660
08
#665
b1010100 J"
b1010100 "#
b1010100 ,#
1'
b1010100 V
b1010100 ]
b1010100 2"
18
#666
b100000000000 ;
b100000000000 C
b1100 5
b1100 @
#670
08
#675
0'
18
#676
b10110 O#
b10110 P#
b0 ;
b0 C
b10000 5
b10000 @
#680
08
#685
1'
18
#686
b110100 ;
b110100 C
b111 >
b10110 =
b1000 5
b1000 @
#690
08
#695
b110100 J"
b110100 "#
b110100 ,#
b110100 V
b110100 ]
b110100 2"
0'
18
#696
b100000000000 ;
b100000000000 C
b1100 5
b1100 @
#700
08
#705
1'
18
#706
b10111 O#
b10111 P#
b0 ;
b0 C
b10000 5
b10000 @
#710
08
#715
0'
18
#716
b1110100 ;
b1110100 C
b111 >
b10111 =
b1000 5
b1000 @
#720
08
#725
b1110100 J"
b1110100 "#
b1110100 ,#
1'
b1110100 V
b1110100 ]
b1110100 2"
18
#726
b100000000000 ;
b100000000000 C
b1100 5
b1100 @
#730
08
#735
0'
18
#736
b11000 O#
b11000 P#
b0 ;
b0 C
b10000 5
b10000 @
#740
08
#745
1'
18
#746
b1100 ;
b1100 C
b111 >
b11000 =
b1000 5
b1000 @
#750
08
#755
b1100 J"
b1100 "#
b1100 ,#
b1100 V
b1100 ]
b1100 2"
0'
18
#756
b100000000000 ;
b100000000000 C
b1100 5
b1100 @
#760
08
#765
1'
18
#766
b11001 O#
b11001 P#
b0 ;
b0 C
b10000 5
b10000 @
#770
08
#775
0'
18
#776
b1001100 ;
b1001100 C
b111 >
b11001 =
b1000 5
b1000 @
#780
08
#785
b1001100 J"
b1001100 "#
b1001100 ,#
1'
b1001100 V
b1001100 ]
b1001100 2"
18
#786
b100000000000 ;
b100000000000 C
b1100 5
b1100 @
#790
08
#795
0'
18
#796
b11010 O#
b11010 P#
b0 ;
b0 C
b10000 5
b10000 @
#800
08
#805
1'
18
#806
b101100 ;
b101100 C
b111 >
b11010 =
b1000 5
b1000 @
#810
08
#815
b101100 J"
b101100 "#
b101100 ,#
b101100 V
b101100 ]
b101100 2"
0'
18
#816
b100000000000 ;
b100000000000 C
b1100 5
b1100 @
#820
08
#825
1'
18
#826
b11011 O#
b11011 P#
b0 ;
b0 C
b10000 5
b10000 @
#830
08
#835
0'
18
#836
b1101100 ;
b1101100 C
b111 >
b11011 =
b1000 5
b1000 @
#840
08
#845
b1101100 J"
b1101100 "#
b1101100 ,#
1'
b1101100 V
b1101100 ]
b1101100 2"
18
#846
b100000000000 ;
b100000000000 C
b1100 5
b1100 @
#850
08
#855
0'
18
#856
b11100 O#
b11100 P#
b0 ;
b0 C
b10000 5
b10000 @
#860
08
#865
1'
18
#866
b11100 ;
b11100 C
b111 >
b11100 =
b1000 5
b1000 @
#870
08
#875
b11100 J"
b11100 "#
b11100 ,#
b11100 V
b11100 ]
b11100 2"
0'
18
#876
b100000000000 ;
b100000000000 C
b1100 5
b1100 @
#880
08
#885
1'
18
#886
b11101 O#
b11101 P#
b0 ;
b0 C
b10000 5
b10000 @
#890
08
#895
0'
18
#896
b1011100 ;
b1011100 C
b111 >
b11101 =
b1000 5
b1000 @
#900
08
#905
b1011100 J"
b1011100 "#
b1011100 ,#
1'
b1011100 V
b1011100 ]
b1011100 2"
18
#906
b100000000000 ;
b100000000000 C
b1100 5
b1100 @
#910
08
#915
0'
18
#916
b11110 O#
b11110 P#
b0 ;
b0 C
b10000 5
b10000 @
#920
08
#925
1'
18
#926
b111100 ;
b111100 C
b111 >
b11110 =
b1000 5
b1000 @
#930
08
#935
b111100 J"
b111100 "#
b111100 ,#
b111100 V
b111100 ]
b111100 2"
0'
18
#936
b100000000000 ;
b100000000000 C
b1100 5
b1100 @
#940
08
#945
1'
18
#946
b11111 O#
b11111 P#
b0 ;
b0 C
b10000 5
b10000 @
#950
08
#955
0'
18
#956
b1111100 ;
b1111100 C
b111 >
b11111 =
b1000 5
b1000 @
#960
08
#965
b1111100 J"
b1111100 "#
b1111100 ,#
1'
b1111100 V
b1111100 ]
b1111100 2"
18
#966
b100000000000 ;
b100000000000 C
b1100 5
b1100 @
#970
08
#975
0'
18
#976
b100000 O#
b100000 P#
b0 ;
b0 C
b10000 5
b10000 @
#980
08
#985
1'
18
#986
b10 ;
b10 C
b111 >
b100000 =
b1000 5
b1000 @
#990
08
#995
b10 J"
b10 "#
b10 ,#
b10 V
b10 ]
b10 2"
0'
18
#996
b100000000000 ;
b100000000000 C
b1100 5
b1100 @
#1000
08
#1005
1'
18
#1006
b100001 O#
b100001 P#
b0 ;
b0 C
b10000 5
b10000 @
#1010
08
#1015
0'
18
#1016
b1000010 ;
b1000010 C
b111 >
b100001 =
b1000 5
b1000 @
#1020
08
#1025
b1000010 J"
b1000010 "#
b1000010 ,#
1'
b1000010 V
b1000010 ]
b1000010 2"
18
